[gd_scene load_steps=4 format=2]

[ext_resource path="res://sprites/flare.png" type="Texture" id=1]
[ext_resource path="res://scripts/flare.gd" type="Script" id=2]

[sub_resource type="Animation" id=1]

resource_name = "fade_out"
length = 0.1
loop = false
step = 0.1
tracks/0/type = "value"
tracks/0/path = NodePath(".:modulate")
tracks/0/interp = 1
tracks/0/loop_wrap = true
tracks/0/imported = false
tracks/0/enabled = true
tracks/0/keys = {
"times": PoolRealArray( 0, 0.1 ),
"transitions": PoolRealArray( 1, 1 ),
"update": 0,
"values": [ Color( 1, 1, 1, 1 ), Color( 1, 1, 1, 0 ) ]
}

[node name="flare" type="Sprite"]

texture = ExtResource( 1 )
script = ExtResource( 2 )
_sections_unfolded = [ "Visibility" ]

[node name="anim" type="AnimationPlayer" parent="." index="0"]

root_node = NodePath("..")
autoplay = ""
playback_process_mode = 1
playback_default_blend_time = 0.0
playback_speed = 1.0
anims/fade_out = SubResource( 1 )
blend_times = [  ]


